^C:\USERS\100568964\DOCUMENTS\ASSIGNMENT2NETWORKING\CLIENT\CLIENTDLL\CLIENTDLL\CLIENT.CPP
C:\USERS\100568964\DOCUMENTS\ASSIGNMENT2NETWORKING\CLIENT\CLIENTDLL\CLIENTDLL\X64\DEBUG\VC141.PDB
C:\USERS\100568964\DOCUMENTS\ASSIGNMENT2NETWORKING\CLIENT\CLIENTDLL\CLIENTDLL\X64\DEBUG\VC141.IDB
C:\USERS\100568964\DOCUMENTS\ASSIGNMENT2NETWORKING\CLIENT\CLIENTDLL\CLIENTDLL\X64\DEBUG\CLIENT.OBJ
